{
  "name": "semaphore",
  "version": "0.0.0",
  "description": "Open Source Alternative to Ansible Tower",
  "main": "bin/semaphore.js",
  "scripts": {
    "test": "mocha -R spec",
    "start": "node bin/semaphore.js",
    "prepublish": "./node_modules/.bin/bower --allow-root install"
  },
  "repository": {
    "type": "git",
    "url": "git://github.com/ansible-semaphore/semaphore.git"
  },
  "keywords": [
    "ansible"
  ],
  "author": "Matej Kramny",
  "contributors": [
    {
      "name": "Matej Kramny",
      "email": "github@matej.me"
    },
    {
      "name": "tjheeta",
      "email": ""
    },
    {
      "name": "Alan Campbell",
      "email": "alan.campbell@castawaylabs.com"
    }
  ],
  "license": "MIT",
  "bugs": {
    "url": "https://github.com/ansible-semaphore/semaphore/issues"
  },
  "homepage": "https://github.com/ansible-semaphore/semaphore",
  "dependencies": {
    "async": "2.1.4",
    "bcrypt": "0.8.7",
    "body-parser": "1.4.3",
    "bower": "1.8.0",
    "bugsnag": "1.10.0",
    "connect-mongo": "1.3.2",
    "connect-redis": "3.3.0",
    "cookie-parser": "1.4.3",
    "cron": "1.2.1",
    "express": "4.15.2",
    "express-session": "1.15.2",
    "gulp": "3.9.1",
    "hashtable": "0.5.3",
    "hiredis": "0.5.0",
    "jade": "1.11.0",
    "js-yaml": "3.9.1",
    "less-middleware": "2.2.0",
    "logtrail": "0.0.1-1",
    "mongodb": "2.2.26",
    "mongoose": "4.9.7",
    "morgan": "1.8.1",
    "passport": "0.3.2",
    "passport.socketio": "3.7.0",
    "path": "0.12.7",
    "redis": "2.7.1",
    "request": "2.81.0",
    "require-dir": "0.3.2",
    "serve-static": "1.12.2",
    "sync-exec": "latest",
    "socket.io": "1.7.3",
    "socket.io-client": "1.7.3",
    "swagger-ui": "2.2.10",
    "validator": "3.43.0",
    "zmq": "2.15.3"
  },
  "devDependencies": {
    "js-yaml": "3.9.1",
    "should": "11.2.1",
    "supertest": "3.0.0",
    "gulp": "~3.9.1"
  }
}
